PipelinedCPU/src/cpu/test_cpu.vcd
$date
	Thu May  4 15:03:42 2023
$end
$version
	Icarus Verilog
$end
$timescale
	100fs
$end
$scope module test_CPU $end
$var reg 1 ! clk $end
$var reg 1 " reset $end
$var integer 32 # cnt [31:0] $end
$var integer 32 $ file [31:0] $end
$var integer 32 % i [31:0] $end
$scope module uut $end
$var wire 1 ! clk $end
$var wire 1 " reset $end
$var wire 32 & write_back [31:0] $end
$var wire 5 ' writeReg_WB [4:0] $end
$var wire 5 ( writeReg_MEM [4:0] $end
$var wire 5 ) writeReg_EX [4:0] $end
$var wire 1 * reset_ID $end
$var wire 1 + reset_EX $end
$var wire 1 , regWrite_WB $end
$var wire 1 - regWrite_MEM $end
$var wire 1 . regWrite_ID $end
$var wire 1 / regWrite_EX $end
$var wire 1 0 regRead_MEM $end
$var wire 1 1 regRead_ID $end
$var wire 1 2 regRead_EX $end
$var wire 1 3 regEqual_flag $end
$var wire 2 4 regDest_ID [1:0] $end
$var wire 2 5 regDest_EX [1:0] $end
$var wire 32 6 regB_ID [31:0] $end
$var wire 32 7 regB_Frwd [31:0] $end
$var wire 32 8 regB_EX [31:0] $end
$var wire 32 9 regA_ID [31:0] $end
$var wire 32 : regA_Frwd [31:0] $end
$var wire 32 ; regA_EX [31:0] $end
$var wire 32 < read_instr [31:0] $end
$var wire 32 = readData_WB [31:0] $end
$var wire 32 > readData_MEM [31:0] $end
$var wire 32 ? pcRead [31:0] $end
$var wire 32 @ pcPlus4_IF [31:0] $end
$var wire 32 A pcPlus4_ID [31:0] $end
$var wire 32 B pcPlus4_EX [31:0] $end
$var wire 1 C memWrite_MEM $end
$var wire 1 D memWrite_ID $end
$var wire 1 E memWrite_EX $end
$var wire 1 F memToReg_WB $end
$var wire 1 G memToReg_MEM $end
$var wire 1 H memToReg_ID $end
$var wire 1 I memToReg_EX $end
$var wire 32 J instr_ID [31:0] $end
$var wire 1 K extandFlag $end
$var wire 1 L enable_MEM_ID $end
$var wire 1 M enable_MEM_EX $end
$var wire 1 N enable_MEM $end
$var wire 1 O enable_IF $end
$var wire 1 P enable_ID $end
$var wire 32 Q editData_MEM [31:0] $end
$var wire 32 R ShamtExt_ID [31:0] $end
$var wire 32 S ShamtExt_EX [31:0] $end
$var wire 5 T Rt_EX [4:0] $end
$var wire 5 U Rd_EX [4:0] $end
$var wire 32 V PC_IF [31:0] $end
$var wire 32 W PC_ID [31:0] $end
$var wire 2 X PCSrc_ID [1:0] $end
$var wire 32 Y Mx2Src_EX [31:0] $end
$var wire 32 Z Mx1Src_EX [31:0] $end
$var wire 32 [ ImmExt_ID [31:0] $end
$var wire 32 \ ImmExt_EX [31:0] $end
$var wire 1 ] Frwrd3_MEM $end
$var wire 1 ^ Frwrd3_ID $end
$var wire 1 _ Frwrd3_EX $end
$var wire 2 ` Frwd2_ID [1:0] $end
$var wire 2 a Frwd2_EX [1:0] $end
$var wire 2 b Frwd1_ID [1:0] $end
$var wire 2 c Frwd1_EX [1:0] $end
$var wire 32 d ALUresult_WB [31:0] $end
$var wire 32 e ALUresult_MEM [31:0] $end
$var wire 32 f ALUresult_EX [31:0] $end
$var wire 2 g ALUSrc2_ID [1:0] $end
$var wire 2 h ALUSrc2_EX [1:0] $end
$var wire 2 i ALUSrc1_ID [1:0] $end
$var wire 2 j ALUSrc1_EX [1:0] $end
$var wire 4 k ALUCtrl_ID [3:0] $end
$var wire 4 l ALUCrl_EX [3:0] $end
$scope module EXMEMBuffer $end
$var wire 1 ! clk $end
$var wire 32 m editData_IN [31:0] $end
$var wire 5 n writeReg_EX [4:0] $end
$var wire 1 / regWrite_EX $end
$var wire 1 2 regRead_EX $end
$var wire 1 E memWrite_EX $end
$var wire 1 I memToReg_EX $end
$var wire 1 M enable_MEM_EX $end
$var wire 1 _ Frwrd3_EX $end
$var wire 32 o ALUresult_EX [31:0] $end
$var reg 32 p ALUresult_MEM [31:0] $end
$var reg 1 ] Frwrd3_MEM $end
$var reg 32 q editData_MEM [31:0] $end
$var reg 1 N enable_MEM $end
$var reg 1 G memToReg_MEM $end
$var reg 1 C memWrite_MEM $end
$var reg 1 0 regRead_MEM $end
$var reg 1 - regWrite_MEM $end
$var reg 5 r writeReg_MEM [4:0] $end
$upscope $end
$scope module Fwd $end
$var wire 32 s ALUout2 [31:0] $end
$var wire 32 t regB_ID [31:0] $end
$var wire 32 u regA_ID [31:0] $end
$var wire 32 v read_data [31:0] $end
$var wire 2 w Frwd2_ID [1:0] $end
$var wire 2 x Frwd1_ID [1:0] $end
$var wire 32 y ALUout1 [31:0] $end
$var reg 32 z regA_Frwd [31:0] $end
$var reg 32 { regB_Frwd [31:0] $end
$upscope $end
$scope module IDEXBuffer $end
$var wire 1 ! clk $end
$var wire 32 | regA_Frwd [31:0] $end
$var wire 32 } regB_Frwd [31:0] $end
$var wire 1 + reset $end
$var wire 1 . regWrite_ID $end
$var wire 1 H regRead_ID $end
$var wire 2 ~ regDest_ID [1:0] $end
$var wire 32 !" pcPlus4_ID [31:0] $end
$var wire 1 L memWrite_ID $end
$var wire 1 D memToReg_ID $end
$var wire 32 "" instr_ID [31:0] $end
$var wire 1 1 enable_MEM_ID $end
$var wire 32 #" ShamtExt_ID [31:0] $end
$var wire 32 $" ImmExt_ID [31:0] $end
$var wire 1 ^ Frwrd3_ID $end
$var wire 2 %" Frwd2_ID [1:0] $end
$var wire 2 &" Frwd1_ID [1:0] $end
$var wire 2 '" ALUSrc2_ID [1:0] $end
$var wire 2 (" ALUSrc1_ID [1:0] $end
$var wire 4 )" ALUCtrl_ID [3:0] $end
$var reg 4 *" ALUCrl_EX [3:0] $end
$var reg 2 +" ALUSrc1_EX [1:0] $end
$var reg 2 ," ALUSrc2_EX [1:0] $end
$var reg 2 -" Frwd1_EX [1:0] $end
$var reg 2 ." Frwd2_EX [1:0] $end
$var reg 1 _ Frwrd3_EX $end
$var reg 32 /" ImmExt_EX [31:0] $end
$var reg 5 0" Rd_EX [4:0] $end
$var reg 5 1" Rt_EX [4:0] $end
$var reg 32 2" ShamtExt_EX [31:0] $end
$var reg 1 M enable_MEM_EX $end
$var reg 1 I memToReg_EX $end
$var reg 1 E memWrite_EX $end
$var reg 32 3" pcPlus4_EX [31:0] $end
$var reg 32 4" regA_EX [31:0] $end
$var reg 32 5" regB_EX [31:0] $end
$var reg 2 6" regDest_EX [1:0] $end
$var reg 1 2 regRead_EX $end
$var reg 1 / regWrite_EX $end
$upscope $end
$scope module IFIDBuffer $end
$var wire 1 ! clk $end
$var wire 1 * reset $end
$var wire 32 7" pc_in [31:0] $end
$var wire 32 8" pc4_in [31:0] $end
$var wire 32 9" instr_in [31:0] $end
$var wire 1 P enable $end
$var reg 32 :" instr_out [31:0] $end
$var reg 32 ;" pc4_out [31:0] $end
$var reg 32 <" pc_out [31:0] $end
$upscope $end
$scope module MEMWBBuffer $end
$var wire 32 =" ALUresult_MEM [31:0] $end
$var wire 1 ! clk $end
$var wire 1 G memToReg_MEM $end
$var wire 1 - regWrite_MEM $end
$var wire 5 >" writeReg_MEM [4:0] $end
$var wire 32 ?" readData_MEM [31:0] $end
$var reg 32 @" ALUresult_WB [31:0] $end
$var reg 1 F memToReg_WB $end
$var reg 32 A" readData_WB [31:0] $end
$var reg 1 , regWrite_WB $end
$var reg 5 B" writeReg_WB [4:0] $end
$upscope $end
$scope module MuxExtend $end
$var wire 32 C" in1 [31:0] $end
$var wire 32 D" in2 [31:0] $end
$var wire 1 K select $end
$var reg 32 E" out [31:0] $end
$upscope $end
$scope module Mx1 $end
$var wire 32 F" in1 [31:0] $end
$var wire 32 G" in2 [31:0] $end
$var wire 32 H" in3 [31:0] $end
$var wire 2 I" select [1:0] $end
$var reg 32 J" out [31:0] $end
$upscope $end
$scope module Mx2 $end
$var wire 32 K" in1 [31:0] $end
$var wire 32 L" in2 [31:0] $end
$var wire 32 M" in3 [31:0] $end
$var wire 2 N" select [1:0] $end
$var reg 32 O" out [31:0] $end
$upscope $end
$scope module Mx3 $end
$var wire 5 P" in1 [4:0] $end
$var wire 5 Q" in2 [4:0] $end
$var wire 5 R" in3 [4:0] $end
$var wire 2 S" select [1:0] $end
$var reg 5 T" out [4:0] $end
$upscope $end
$scope module MxWB $end
$var wire 32 U" in1 [31:0] $end
$var wire 32 V" in2 [31:0] $end
$var wire 1 F select $end
$var reg 32 W" out [31:0] $end
$upscope $end
$scope module PC $end
$var wire 32 X" PC_OUT [31:0] $end
$var wire 32 Y" PC_IN [31:0] $end
$upscope $end
$scope module PC_Mux $end
$var wire 1 ! clk $end
$var wire 32 Z" pc_brnch [31:0] $end
$var wire 32 [" pc_jmp [31:0] $end
$var wire 32 \" pc_jmpr [31:0] $end
$var wire 1 " reset $end
$var wire 32 ]" pc_plus [31:0] $end
$var wire 1 O enable $end
$var wire 2 ^" PCSrc [1:0] $end
$var reg 32 _" PC_OUT [31:0] $end
$upscope $end
$scope module PCplus4 $end
$var wire 32 `" PC_IN [31:0] $end
$var wire 32 a" PC_OUT [31:0] $end
$upscope $end
$scope module ShamtExtend $end
$var wire 5 b" in [4:0] $end
$var wire 32 c" out [31:0] $end
$upscope $end
$scope module alu $end
$var wire 4 d" ALUCtrl [3:0] $end
$var wire 32 e" op1 [31:0] $end
$var wire 32 f" op2 [31:0] $end
$var reg 32 g" Slt_reg [31:0] $end
$var reg 32 h" result [31:0] $end
$upscope $end
$scope module compRsRt $end
$var wire 32 i" inData1 [31:0] $end
$var wire 32 j" inData2 [31:0] $end
$var wire 1 3 equalFlag $end
$upscope $end
$scope module control_unit $end
$var wire 6 k" funct [5:0] $end
$var wire 6 l" opcode [5:0] $end
$var wire 1 3 regEqual_flag $end
$var wire 1 2 regRead_EX $end
$var wire 1 0 regRead_MEM $end
$var wire 1 / regWrite_EX $end
$var wire 1 - regWrite_MEM $end
$var wire 5 m" rs_reg [4:0] $end
$var wire 5 n" rt_reg [4:0] $end
$var wire 5 o" writeReg_EX [4:0] $end
$var wire 5 p" writeReg_MEM [4:0] $end
$var wire 1 * reset_ID $end
$var wire 1 + reset_EX $end
$var wire 1 ^ fwd_m $end
$var wire 2 q" fwd_b [1:0] $end
$var wire 2 r" fwd_a [1:0] $end
$var wire 1 O enable_IF $end
$var wire 1 P enable_ID $end
$var reg 4 s" ALU_control [3:0] $end
$var reg 2 t" ALU_src_A [1:0] $end
$var reg 2 u" ALU_src_B [1:0] $end
$var reg 1 K ext_sign $end
$var reg 1 v" is_link $end
$var reg 1 w" is_store $end
$var reg 1 H mem_to_reg $end
$var reg 1 L mem_used $end
$var reg 1 D mem_write $end
$var reg 2 x" pc_src [1:0] $end
$var reg 1 1 regRead $end
$var reg 2 y" reg_dst [1:0] $end
$var reg 1 . reg_write $end
$var reg 1 z" rs_flag $end
$var reg 1 {" rt_flag $end
$scope module HazardCtrl $end
$var wire 5 |" addr_rs [4:0] $end
$var wire 5 }" addr_rt [4:0] $end
$var wire 1 v" is_link $end
$var wire 1 2 readFlag1 $end
$var wire 1 0 readFlag2 $end
$var wire 1 / regWrite1 $end
$var wire 1 - regWrite2 $end
$var wire 1 z" rs_used $end
$var wire 1 {" rt_used $end
$var wire 1 w" storeFlag $end
$var wire 5 ~" writeReg1 [4:0] $end
$var wire 5 !# writeReg2 [4:0] $end
$var wire 1 + reset2 $end
$var wire 1 * reset1 $end
$var wire 1 O enable_1 $end
$var wire 1 P enable2 $end
$var reg 2 "# fwd_a [1:0] $end
$var reg 2 ## fwd_b [1:0] $end
$var reg 1 ^ fwd_m $end
$var reg 1 $# stall $end
$scope module StallUnit $end
$var wire 1 v" is_link $end
$var wire 1 $# stall $end
$var reg 1 P enable2 $end
$var reg 1 O enable_1 $end
$var reg 1 * reset1 $end
$var reg 1 + reset2 $end
$upscope $end
$upscope $end
$upscope $end
$scope module instruction_RAM $end
$var wire 1 ! CLOCK $end
$var wire 64 %# DATA_0 [63:0] $end
$var wire 1 &# ENABLE $end
$var wire 32 '# FETCH_ADDRESS [31:0] $end
$var wire 1 (# RESET $end
$var wire 64 )# x1_projection [63:0] $end
$var wire 32 *# x1 [31:0] $end
$var wire 64 +# wild_0 [63:0] $end
$var wire 64 ,# wild [63:0] $end
$var wire 64 -# \c$wild_app_arg_0 [63:0] $end
$var wire 64 .# \c$wild_app_arg [63:0] $end
$var reg 32 /# DATA [31:0] $end
$scope begin InstructionRAM_blockRamFile $end
$upscope $end
$upscope $end
$scope module main_memory $end
$var wire 1 ! CLOCK $end
$var wire 65 0# EDIT_SERIAL [64:0] $end
$var wire 1 N ENABLE $end
$var wire 32 1# FETCH_ADDRESS [31:0] $end
$var wire 1 2# RESET $end
$var wire 64 3# wild_0 [63:0] $end
$var wire 64 4# wild [63:0] $end
$var wire 64 5# ds [63:0] $end
$var wire 64 6# \c$wild_app_arg_0 [63:0] $end
$var wire 64 7# \c$wild_app_arg [63:0] $end
$var wire 32 8# \c$i [31:0] $end
$var wire 1 9# \c$app_arg $end
$var wire 64 :# a1 [63:0] $end
$var reg 32 ;# DATA [31:0] $end
$var reg 16384 <# ram_init [16383:0] $end
$var integer 32 =# i [31:0] $end
$scope begin DATA_blockRam $end
$upscope $end
$upscope $end
$scope module register_file $end
$var wire 1 ! clk $end
$var wire 5 ># in1 [4:0] $end
$var wire 5 ?# in2 [4:0] $end
$var wire 5 @# in3 [4:0] $end
$var wire 1 , write $end
$var wire 32 A# writeData [31:0] $end
$var wire 32 B# rd2 [31:0] $end
$var wire 32 C# rd1 [31:0] $end
$scope module RegMx1 $end
$var wire 32 D# in1 [31:0] $end
$var wire 32 E# in2 [31:0] $end
$var wire 5 F# select [4:0] $end
$var reg 32 G# out [31:0] $end
$upscope $end
$scope module RegMx2 $end
$var wire 32 H# in1 [31:0] $end
$var wire 32 I# in2 [31:0] $end
$var wire 5 J# select [4:0] $end
$var reg 32 K# out [31:0] $end
$upscope $end
$upscope $end
$upscope $end
$upscope $end
$enddefinitions $end
#0
$dumpvars
bx K#
bx J#
bx I#
b0 H#
bx G#
bx F#
bx E#
b0 D#
bx C#
bx B#
bx A#
bx @#
bx ?#
bx >#
b1000000000 =#
b0 <#
bx ;#
b0xxxxxxxxxxxxxxxxxxxxxxxxxxxxxxxxxxxxxxxxxxxxxxxxxxxxxxxxxxxxxx :#
x9#
bx 8#
b0xxxxxxxxxxxxxxxxxxxxxxxxxxxxxx 7#
b0xxxxxxxxxxxxxxxxxxxxxxxxxxxxxxxx 6#
bx 5#
b0xxxxxxxxxxxxxxxxxxxxxxxxxxxxxx 4#
b0xxxxxxxxxxxxxxxxxxxxxxxxxxxxxxxx 3#
z2#
b0xxxxxxxxxxxxxxxxxxxxxxxxxxxxxx 1#
bx00xxxxxxxxxxxxxxxxxxxxxxxxxxxxxxxxxxxxxxxxxxxxxxxxxxxxxxxxxxxxxx 0#
bx /#
b0xxxxxxxxxxxxxxxxxxxxxxxxxxxxxx .#
b0xxxxxxxxxxxxxxxxxxxxxxxxxxxxxxxx -#
b0xxxxxxxxxxxxxxxxxxxxxxxxxxxxxx ,#
b0xxxxxxxxxxxxxxxxxxxxxxxxxxxxxxxx +#
bx *#
bx )#
z(#
b0xxxxxxxxxxxxxxxxxxxxxxxxxxxxxx '#
1&#
bx %#
0$#
b0 ##
b0 "#
bx !#
bx ~"
bx }"
bx |"
0{"
0z"
b0 y"
b0 x"
0w"
0v"
b0 u"
b0 t"
b0 s"
b0 r"
b0 q"
bx p"
bx o"
bx n"
bx m"
bx l"
bx k"
bx j"
bx i"
bx h"
bx g"
bx f"
bx e"
bx d"
b0xxxxx c"
bx b"
bx a"
bx `"
bx _"
b0 ^"
bx ]"
bx \"
bx00 ["
bx Z"
bx Y"
bx X"
bx W"
bx V"
bx U"
bx T"
bx S"
b11111 R"
bx Q"
bx P"
bx O"
bx N"
b0 M"
bx L"
bx K"
bx J"
bx I"
bx H"
bx G"
bx F"
b0xxxxxxxxxxxxxxxx E"
bx D"
b0xxxxxxxxxxxxxxxx C"
bx B"
bx A"
bx @"
bx ?"
bx >"
bx ="
bx <"
bx ;"
bx :"
bx 9"
bx 8"
bx 7"
bx 6"
bx 5"
bx 4"
bx 3"
bx 2"
bx 1"
bx 0"
bx /"
bx ."
bx -"
bx ,"
bx +"
bx *"
b0 )"
b0 ("
b0 '"
b0 &"
b0 %"
b0xxxxxxxxxxxxxxxx $"
b0xxxxx #"
bx ""
bx !"
b0 ~
bx }
bx |
bx {
bx z
bx y
b0 x
b0 w
bx v
bx u
bx t
bx s
bx r
bx q
bx p
bx o
bx n
bx m
bx l
b0 k
bx j
b0 i
bx h
b0 g
bx f
bx e
bx d
bx c
b0 b
bx a
b0 `
x_
0^
x]
bx \
b0xxxxxxxxxxxxxxxx [
bx Z
bx Y
b0 X
bx W
bx V
bx U
bx T
bx S
b0xxxxx R
bx Q
1P
1O
xN
xM
0L
0K
bx J
xI
0H
xG
xF
xE
0D
xC
bx B
bx A
bx @
bx ?
bx >
bx =
bx <
bx ;
bx :
bx 9
bx 8
bx 7
bx 6
bx 5
b0 4
x3
x2
01
x0
x/
0.
x-
x,
0+
0*
bx )
bx (
bx '
bx &
bx %
b10000000000000000000000000000011 $
b0 #
0"
0!
$end
#500000
b0 ,#
b0 .#
b0 '#
bx f
bx o
bx y
bx h"
b100 @
b100 8"
b100 ]"
b100 a"
b0 V
b0 7"
b0 X"
b0 `"
b0 ?
b0 Y"
b0 _"
0_
b0 a
b0 ."
b0 c
b0 -"
b0xxxxx S
b0xxxxx 2"
b0xxxxx G"
b0 5
b0 6"
b0 S"
b0 j
b0 +"
b0 I"
b0xxxxxxxxxxxxxxxx \
b0xxxxxxxxxxxxxxxx /"
b0xxxxxxxxxxxxxxxx L"
b0 h
b0 ,"
b0 N"
b0 l
b0 *"
b0 d"
0M
0E
0I
02
0/
1"
1!
#1000000
0"
0!
#1500000
09#
b0xxxxxxxxxxxxxxxxxxxxxxxxxx00 ["
b1 ,#
b1 .#
b1 '#
b100000000000100000000000000001 <
b100000000000100000000000000001 9"
b100000000000100000000000000001 /#
0]
00
0N
b0xxxxxxxxxxxxxxxxxxxxxxxxxxxxxxxxxxxxxxxxxxxxxxxxxxxxxxxxxxxxxx 0#
0C
0G
0-
b100 A
b100 !"
b100 ;"
b0 W
b0 <"
b1000 @
b1000 8"
b1000 ]"
b1000 a"
b100 V
b100 7"
b100 X"
b100 `"
b100 ?
b100 Y"
b100 _"
1!
#2000000
0!
#2500000
b1100 Z"
b0 :
b0 z
b0 |
b0 \"
b0 i"
b1 [
b1 $"
b1 E"
b0 9
b0 u
b0 C#
b0 G#
1K
1z"
1.
b1 4
b1 ~
b1 y"
b1 g
b1 '"
b1 u"
b10 ,#
b10 .#
b10 '#
b0 R
b0 #"
b0 c"
b0 b"
b1 D"
b1 C"
b10 ?#
b10 J#
b0 >#
b0 F#
b1 k"
b10 n"
b10 }"
b0 m"
b0 |"
b1000 l"
b10000000000000000100 ["
b100000000000110000000000000010 <
b100000000000110000000000000010 9"
b100000000000110000000000000010 /#
b1100 @
b1100 8"
b1100 ]"
b1100 a"
b1000 V
b1000 7"
b1000 X"
b1000 `"
b1000 ?
b1000 Y"
b1000 _"
b100000000000100000000000000001 J
b100000000000100000000000000001 ""
b100000000000100000000000000001 :"
b1000 A
b1000 !"
b1000 ;"
b100 W
b100 <"
b100 B
b100 3"
b100 H"
0F
0,
1!
#3000000
0!
#3500000
b1 f
b1 o
b1 y
b1 h"
b10 [
b10 $"
b10 E"
b1 4
b1 ~
b1 y"
b1 g
b1 '"
b1 u"
1z"
1.
1K
b0 Z
b0 J"
b0 e"
b10 )
b10 n
b10 T"
b10 o"
b10 ~"
b1 Y
b1 O"
b1 f"
b10 D"
b10 C"
b11 ?#
b11 J#
b10 k"
b11 n"
b11 }"
b11000000000000001000 ["
b11 ,#
b11 .#
b11 '#
b100100000001000000000000010100 <
b100100000001000000000000010100 9"
b100100000001000000000000010100 /#
b1000 B
b1000 3"
b1000 H"
b0 U
b0 0"
b0 P"
b10 T
b10 1"
b10 Q"
b0 S
b0 2"
b0 G"
b0 ;
b0 4"
b0 F"
b1 5
b1 6"
b1 S"
b1 \
b1 /"
b1 L"
b1 h
b1 ,"
b1 N"
1/
b100000000000110000000000000010 J
b100000000000110000000000000010 ""
b100000000000110000000000000010 :"
b10100 Z"
b1100 A
b1100 !"
b1100 ;"
b1000 W
b1000 <"
b10000 @
b10000 8"
b10000 ]"
b10000 a"
b1100 V
b1100 7"
b1100 X"
b1100 `"
b1100 ?
b1100 Y"
b1100 _"
1!
#4000000
0!
#4500000
b10100 [
b10100 $"
b10100 E"
b1 k
b1 )"
b1 s"
b1 4
b1 ~
b1 y"
b1 g
b1 '"
b1 u"
1z"
1.
0K
b10 f
b10 o
b10 y
b10 h"
b0xxxxxxxxxxxxxxxxxxxxxxxxxxxxxxxx :#
b100 ,#
b100 .#
b100 '#
b10100 D"
b10100 C"
b100 ?#
b100 J#
b10100 k"
b100 n"
b100 }"
b1001 l"
b100000000000001010000 ["
b11 )
b11 n
b11 T"
b11 o"
b11 ~"
b10 Y
b10 O"
b10 f"
b0xxxxxxxxxxxxxxxxxxxxxxxxxxxxxxxx 0#
b0 4#
b0 7#
b0 1#
b100100000001010000000000010000 <
b100100000001010000000000010000 9"
b100100000001010000000000010000 /#
b10100 @
b10100 8"
b10100 ]"
b10100 a"
b10000 V
b10000 7"
b10000 X"
b10000 `"
b10000 ?
b10000 Y"
b10000 _"
b100100000001000000000000010100 J
b100100000001000000000000010100 ""
b100100000001000000000000010100 :"
b1100000 Z"
b10000 A
b10000 !"
b10000 ;"
b1100 W
b1100 <"
b1100 B
b1100 3"
b1100 H"
b11 T
b11 1"
b11 Q"
b10 \
b10 /"
b10 L"
b10 (
b10 r
b10 >"
b10 p"
b10 !#
b1 e
b1 p
b1 s
b1 ="
1-
1!
#5000000
0!
#5500000
b10000 [
b10000 $"
b10000 E"
b1 4
b1 ~
b1 y"
b1 g
b1 '"
b1 u"
b1 k
b1 )"
b1 s"
1z"
1.
b1 &
b1 W"
b1 A#
b100 )
b100 n
b100 T"
b100 o"
b100 ~"
b10100 Y
b10100 O"
b10100 f"
b10100 f
b10100 o
b10100 y
b10100 h"
b10000 D"
b10000 C"
b101 ?#
b101 J#
b10000 k"
b101 n"
b101 }"
b101000000000001000000 ["
b101 ,#
b101 .#
b101 '#
b100100000001100000000000000100 <
b100100000001100000000000000100 9"
b100100000001100000000000000100 /#
b10 '
b10 B"
b10 @#
b1 d
b1 @"
b1 U"
1,
b11 (
b11 r
b11 >"
b11 p"
b11 !#
b10 e
b10 p
b10 s
b10 ="
b10000 B
b10000 3"
b10000 H"
b100 T
b100 1"
b100 Q"
b10100 \
b10100 /"
b10100 L"
b1 l
b1 *"
b1 d"
b100100000001010000000000010000 J
b100100000001010000000000010000 ""
b100100000001010000000000010000 :"
b1010100 Z"
b10100 A
b10100 !"
b10100 ;"
b10000 W
b10000 <"
b11000 @
b11000 8"
b11000 ]"
b11000 a"
b10100 V
b10100 7"
b10100 X"
b10100 `"
b10100 ?
b10100 Y"
b10100 _"
1!
#6000000
0!
#6500000
b100 [
b100 $"
b100 E"
b1 4
b1 ~
b1 y"
b1 g
b1 '"
b1 u"
b1 k
b1 )"
b1 s"
1z"
1.
b10000 f
b10000 o
b10000 y
b10000 h"
b101xxxxxxxxxxxxxxxxxxxxxxxxxxxxxxxx :#
b110 ,#
b110 .#
b110 '#
b100 D"
b100 C"
b110 ?#
b110 J#
b100 k"
b110 n"
b110 }"
b110000000000000010000 ["
b101 )
b101 n
b101 T"
b101 o"
b101 ~"
b10000 Y
b10000 O"
b10000 f"
b101xxxxxxxxxxxxxxxxxxxxxxxxxxxxxxxx 0#
b101 4#
b101 7#
b101 1#
b10 &
b10 W"
b10 A#
b10000110011100000100000 <
b10000110011100000100000 9"
b10000110011100000100000 /#
b11100 @
b11100 8"
b11100 ]"
b11100 a"
b11000 V
b11000 7"
b11000 X"
b11000 `"
b11000 ?
b11000 Y"
b11000 _"
b100100000001100000000000000100 J
b100100000001100000000000000100 ""
b100100000001100000000000000100 :"
b101000 Z"
b11000 A
b11000 !"
b11000 ;"
b10100 W
b10100 <"
b10100 B
b10100 3"
b10100 H"
b101 T
b101 1"
b101 Q"
b10000 \
b10000 /"
b10000 L"
b100 (
b100 r
b100 >"
b100 p"
b100 !#
b10100 e
b10100 p
b10100 s
b10100 ="
b11 '
b11 B"
b11 @#
b10 d
b10 @"
b10 U"
1!
#7000000
0!
#7500000
03
b10 7
b10 {
b10 }
b10 j"
b1 :
b1 z
b1 |
b1 \"
b1 i"
b100xxxxxxxxxxxxxxxxxxxxxxxxxxxxxxxx :#
b100 f
b100 o
b100 y
b100 h"
b11100000100000 [
b11100000100000 $"
b11100000100000 E"
b10 6
b10 t
b10 B#
b10 K#
b1 9
b1 u
b1 C#
b1 G#
1{"
b0 4
b0 ~
b0 y"
b0 g
b0 '"
b0 u"
b0 k
b0 )"
b0 s"
1z"
1.
b10100 &
b10100 W"
b10100 A#
b100xxxxxxxxxxxxxxxxxxxxxxxxxxxxxxxx 0#
b100 4#
b100 7#
b100 1#
b110 )
b110 n
b110 T"
b110 o"
b110 ~"
b100 Y
b100 O"
b100 f"
b11100000100000 D"
b11100000100000 C"
b10 I#
b11 ?#
b11 J#
b1 E#
b10 >#
b10 F#
b100000 k"
b11 n"
b11 }"
b10 m"
b10 |"
b0 l"
b1000011001110000010000000 ["
b111 ,#
b111 .#
b111 '#
b100000010010001111111111111110 <
b100000010010001111111111111110 9"
b100000010010001111111111111110 /#
b100 '
b100 B"
b100 @#
b10100 d
b10100 @"
b10100 U"
b101 (
b101 r
b101 >"
b101 p"
b101 !#
b10000 e
b10000 p
b10000 s
b10000 ="
b11000 B
b11000 3"
b11000 H"
b110 T
b110 1"
b110 Q"
b100 \
b100 /"
b100 L"
b10000110011100000100000 J
b10000110011100000100000 ""
b10000110011100000100000 :"
b1110000010011100 Z"
b11100 A
b11100 !"
b11100 ;"
b11000 W
b11000 <"
b100000 @
b100000 8"
b100000 ]"
b100000 a"
b11100 V
b11100 7"
b11100 X"
b11100 `"
b11100 ?
b11100 Y"
b11100 _"
1!
#8000000
0!
#8500000
x3
bx 7
bx {
bx }
bx j"
b11111111111111111111111111111110 [
b11111111111111111111111111111110 $"
b11111111111111111111111111111110 E"
bx 6
bx t
bx B#
bx K#
1K
b1 4
b1 ~
b1 y"
b1 g
b1 '"
b1 u"
0{"
1z"
1.
b1xxxxxxxxxxxxxxxxxxxxxxxxxxxxxxxx :#
b1000 ,#
b1000 .#
b1000 '#
b11111 R
b11111 #"
b11111 c"
b11111 b"
b11111111111111111111111111111110 D"
b1111111111111110 C"
bx I#
b1000 ?#
b1000 J#
b111110 k"
b1000 n"
b1000 }"
b1000 l"
b1001000111111111111111000 ["
b1 Z
b1 J"
b1 e"
b111 )
b111 n
b111 T"
b111 o"
b111 ~"
b10 m
b10 Y
b10 O"
b10 f"
b11 f
b11 o
b11 y
b11 h"
b1xxxxxxxxxxxxxxxxxxxxxxxxxxxxxxxx 0#
b1 4#
b1 7#
b1 1#
b10000 &
b10000 W"
b10000 A#
b101001000100100000100010 <
b101001000100100000100010 9"
b101001000100100000100010 /#
b100100 @
b100100 8"
b100100 ]"
b100100 a"
b100000 V
b100000 7"
b100000 X"
b100000 `"
b100000 ?
b100000 Y"
b100000 _"
b100000010010001111111111111110 J
b100000010010001111111111111110 ""
b100000010010001111111111111110 :"
b11000 Z"
b100000 A
b100000 !"
b100000 ;"
b11100 W
b11100 <"
b11100 B
b11100 3"
b11100 H"
b111 U
b111 0"
b111 P"
b11 T
b11 1"
b11 Q"
b1 ;
b1 4"
b1 F"
b0 5
b0 6"
b0 S"
b11100000100000 \
b11100000100000 /"
b11100000100000 L"
b10 8
b10 5"
b10 K"
b0 h
b0 ,"
b0 N"
b0 l
b0 *"
b0 d"
b110 (
b110 r
b110 >"
b110 p"
b110 !#
b100 e
b100 p
b100 s
b100 ="
b101 '
b101 B"
b101 @#
b10000 d
b10000 @"
b10000 U"
1!
#9000000
0!
